school_id,ClassName,ClassID
COEP,F.Y.B.Tech.,37
COEP,S.Y.B.Tech.,38
COEP,T.Y.B.Tech.,39
COEP,Final B.Tech,40
COEP,F.Y.M.Tech.,41
COEP,S.Y.M.Tech,42
COEP,F.Y.IIT,2615
COEP,S.Y.IIT.,2621
COEP,F.Y.MET_MAT,2629
COEP,Last year,2635
COEP,PGD-ERP,4255
COEP,dsass,4280
COEP,dsass,4281
COEP,dsass,4282
