,School_id, Insert Count, Duplicate Count, Update Count, Wrong School ID Count,SPRN Error count,Name not validated, Validation count,Refuse count
, VBMD, 10,0, 0, 0,0,, 0,11
,, 1222
,, 1221
,, 1220
,, 1219
,, 1218
,, 1217
,, 1216
,, 1215
,, 1214
,, 1213
